Survival analysis with tidymodels: The censored package
…
---
# Tidied

```r
tidy(cph_fit)
```

```
## # A tibble: 53 × 5
##    term              estimate std.error statistic  p.value
##    <chr>                <dbl>     <dbl>     <dbl>    <dbl>
##  1 birth_date          0.712    0.00472   151.    0       
##  2 sexmale            -0.0632   0.0133     -4.74  2.09e- 6
##  3 spay_neuterintact  -0.286    0.0210    -13.6   4.17e-42
##  4 named              -0.370    0.0223    -16.6   6.92e-62
##  5 american            0.138    0.0600      2.31  2.12e- 2
##  6 australian          0.116    0.0528      2.20  2.80e- 2
##  7 beagle             -0.177    0.0501     -3.53  4.09e- 4
##  8 border              0.106    0.0727      1.46  1.44e- 1
##  9 boxer              -0.0465   0.0434     -1.07  2.84e- 1
## 10 bull               -0.0425   0.129      -0.329 7.42e- 1
## # … with 43 more rows
```
…
.pull-left-a-lot[

```r
predict(cph_fit, our_dogs, type = "survival", time = times) %>% 
  bind_cols(our_dogs %>% select(pooch)) %>%
  unnest(cols = c(.pred))
```

The column names are standardized for each type of prediction.

]
.pull-right-a-little[

```
## # A tibble: 6,000 × 3
##    .time .pred_survival pooch  
##    <int>          <dbl> <chr>  
##  1     1           1    Artemis
##  2     2           1.00 Artemis
##  3     3           1.00 Artemis
##  4     4           1.00 Artemis
##  5     5           1.00 Artemis
##  6     6           1.00 Artemis
##  7     7           1.00 Artemis
##  8     8           1.00 Artemis
##  9     9           1.00 Artemis
## 10    10           1.00 Artemis
## # … with 5,990 more rows
```
…
